digraph "Graphical Class Hierarchy"
{
 // LATEX_PDF_SIZE
  edge [fontname="Helvetica",fontsize="10",labelfontname="Helvetica",labelfontsize="10"];
  node [fontname="Helvetica",fontsize="10",shape=record];
  rankdir="LR";
  Node0 [label="spgu::shape",height=0.2,width=0.4,color="black", fillcolor="white", style="filled",URL="$classspgu_1_1shape.html",tooltip="A base class for defining different shapes."];
  Node0 -> Node1 [dir="back",color="midnightblue",fontsize="10",style="solid",fontname="Helvetica"];
  Node1 [label="spgu::capsule",height=0.2,width=0.4,color="black", fillcolor="white", style="filled",URL="$classspgu_1_1capsule.html",tooltip="A class for defining capsule shape."];
  Node0 -> Node2 [dir="back",color="midnightblue",fontsize="10",style="solid",fontname="Helvetica"];
  Node2 [label="spgu::circle",height=0.2,width=0.4,color="black", fillcolor="white", style="filled",URL="$classspgu_1_1circle.html",tooltip="A class for defining circle shape."];
  Node0 -> Node3 [dir="back",color="midnightblue",fontsize="10",style="solid",fontname="Helvetica"];
  Node3 [label="spgu::rectangle",height=0.2,width=0.4,color="black", fillcolor="white", style="filled",URL="$classspgu_1_1rectangle.html",tooltip="A class for defining rectangle shape."];
}
