digraph "Graphical Class Hierarchy"
{
 // LATEX_PDF_SIZE
  edge [fontname="Helvetica",fontsize="10",labelfontname="Helvetica",labelfontsize="10"];
  node [fontname="Helvetica",fontsize="10",shape=record];
  rankdir="LR";
  Node0 [label="spgu::position",height=0.2,width=0.4,color="black", fillcolor="white", style="filled",URL="$structspgu_1_1position.html",tooltip="A struct for defining position in X and Y coordinates."];
}
